<?xml version="1.0" encoding="utf-8"?>
<!DOCTYPE hibernate-mapping PUBLIC "-//Hibernate/Hibernate Mapping DTD 3.0//EN"
"http://hibernate.sourceforge.net/hibernate-mapping-3.0.dtd">
<!-- 
    Mapping file autogenerated by MyEclipse Persistence Tools
-->
<hibernate-mapping>
    <class name="com.jecn.epros.server.bean.log.FileDownloadLog" table="FILE_DOWNLOAD_LOG">
        <id name="id" type="java.lang.Long">
            <column name="ID" precision="32" scale="0" />
             <generator class="native"></generator>
        </id>
        <property name="fileId" type="java.lang.Long">
            <column name="FILE_ID" precision="19" scale="0"/>
        </property>
         <property name="peopleId" type="java.lang.Long">
			<column name="PEOPLE_ID" precision="19" scale="0" />
		</property>
		<property name="createDate" type="java.util.Date">
			<column name="CREATE_DATE"/>
		</property>
		<property name="loadType" type="int">
			<column name="LOAD_TYPE"/>
		</property> 
    </class>
</hibernate-mapping>
